\relax 
\bibstyle{abbrv}
\citation{Chen}
\@writefile{toc}{\contentsline {section}{\numberline {1}\relax \fontsize  {14.4}{18}\selectfont  {Plasma Science}}{2}}
\newlabel{science}{{1}{2}}
\@writefile{toc}{\contentsline {paragraph}{}{2}}
\newlabel{eq1}{{1}{2}}
\@writefile{toc}{\contentsline {subsection}{\numberline {1.1}\relax \fontsize  {10.95}{13.6}\selectfont  \abovedisplayskip 11\p@ plus3\p@ minus6\p@ \abovedisplayshortskip \z@ plus3\p@ \belowdisplayshortskip 6.5\p@ plus3.5\p@ minus3\p@ \def \leftmargin \leftmargini \parsep 5\p@ plus2.5\p@ minus\p@ \topsep 10\p@ plus4\p@ minus6\p@ \itemsep 5\p@ plus2.5\p@ minus\p@ {\leftmargin \leftmargini \topsep 9\p@ plus3\p@ minus5\p@ \parsep 4.5\p@ plus2\p@ minus\p@ \itemsep \parsep }\belowdisplayskip \abovedisplayskip {Fundamentals of Plasma Physics}}{2}}
\@writefile{toc}{\contentsline {paragraph}{}{2}}
\@writefile{lof}{\contentsline {figure}{\numberline {1}{\ignorespaces Paschen's Curve}}{3}}
\@writefile{lot}{\contentsline {table}{\numberline {1}{\ignorespaces Required Conditions for Atmospheric Pressure Plasma Via Voltage Breakdown with Electrode Gap of 3 mm}}{3}}
\newlabel{eq2}{{2}{3}}
\citation{nature}
\bibdata{bib_Kevin_Moseni}
\bibcite{Chen}{1}
\@writefile{toc}{\contentsline {section}{\numberline {2}\relax \fontsize  {14.4}{18}\selectfont  {Plasma Applications}}{4}}
\newlabel{apps}{{2}{4}}
\@writefile{toc}{\contentsline {paragraph}{}{4}}
\@writefile{toc}{\contentsline {subsection}{\numberline {2.1}\relax \fontsize  {10.95}{13.6}\selectfont  \abovedisplayskip 11\p@ plus3\p@ minus6\p@ \abovedisplayshortskip \z@ plus3\p@ \belowdisplayshortskip 6.5\p@ plus3.5\p@ minus3\p@ \def \leftmargin \leftmargini \parsep 5\p@ plus2.5\p@ minus\p@ \topsep 10\p@ plus4\p@ minus6\p@ \itemsep 5\p@ plus2.5\p@ minus\p@ {\leftmargin \leftmargini \topsep 9\p@ plus3\p@ minus5\p@ \parsep 4.5\p@ plus2\p@ minus\p@ \itemsep \parsep }\belowdisplayskip \abovedisplayskip {Plasma-Activated Water}}{4}}
\@writefile{toc}{\contentsline {paragraph}{}{4}}
\bibcite{nature}{2}
