\relax 
\@writefile{toc}{\contentsline {section}{\numberline {1}\relax \fontsize  {14.4}{18}\selectfont  {Three-Lump Model Results}}{2}}
\newlabel{three}{{1}{2}}
\@writefile{lof}{\contentsline {figure}{\numberline {1}{\ignorespaces 3-lump model conversion versus yield}}{2}}
\@writefile{lot}{\contentsline {table}{\numberline {1}{\ignorespaces parameter values from python}}{2}}
\@writefile{toc}{\contentsline {section}{\numberline {2}\relax \fontsize  {14.4}{18}\selectfont  {Four-Lump Model Result}}{3}}
\newlabel{apps}{{2}{3}}
\@writefile{lof}{\contentsline {figure}{\numberline {2}{\ignorespaces 4-lump model conversion versus yield graph}}{3}}
\@writefile{lot}{\contentsline {table}{\numberline {2}{\ignorespaces parameter values from python}}{3}}
