\relax 
\@writefile{toc}{\contentsline {section}{\numberline {1}\relax \fontsize  {14.4}{18}\selectfont  {Computational Assignment 3 Comparison}}{2}}
\newlabel{one}{{1}{2}}
\@writefile{toc}{\contentsline {subsection}{\numberline {1.1}CA3}{2}}
\@writefile{lof}{\contentsline {figure}{\numberline {1}{\ignorespaces CA3: Component Flow Rate versus Volume}}{2}}
\@writefile{lof}{\contentsline {figure}{\numberline {2}{\ignorespaces CA3: Temperature versus Volume}}{2}}
\@writefile{toc}{\contentsline {subsection}{\numberline {1.2}CA6}{3}}
\@writefile{lof}{\contentsline {figure}{\numberline {3}{\ignorespaces CA6: Component Flow Rate versus Volume}}{3}}
\@writefile{lof}{\contentsline {figure}{\numberline {4}{\ignorespaces CA6: Temperature versus Volume}}{4}}
\@writefile{toc}{\contentsline {section}{\numberline {2}\relax \fontsize  {14.4}{18}\selectfont  {Three-Lump Model Comparison}}{4}}
\newlabel{two}{{2}{4}}
\@writefile{lot}{\contentsline {table}{\numberline {1}{\ignorespaces Given Parameter Values for Verification}}{4}}
\@writefile{lof}{\contentsline {figure}{\numberline {5}{\ignorespaces CA4: 3-lump model yield versus conversion}}{5}}
\@writefile{lof}{\contentsline {figure}{\numberline {6}{\ignorespaces CA4: 3-lump model yield versus time}}{5}}
\@writefile{toc}{\contentsline {section}{\numberline {3}\relax \fontsize  {14.4}{18}\selectfont  {Four-Lump Model Comparison}}{5}}
\newlabel{three}{{3}{5}}
\@writefile{lot}{\contentsline {table}{\numberline {2}{\ignorespaces Given Parameter Values for Verification}}{5}}
\@writefile{lof}{\contentsline {figure}{\numberline {7}{\ignorespaces CA6: 3-lump model yield versus conversion}}{6}}
\@writefile{lof}{\contentsline {figure}{\numberline {8}{\ignorespaces [Placeholder] CA6: 3-lump model yield versus time}}{6}}
\@writefile{lof}{\contentsline {figure}{\numberline {9}{\ignorespaces CA4: 4-lump yield versus conversion}}{7}}
\@writefile{lof}{\contentsline {figure}{\numberline {10}{\ignorespaces CA4: 4-lump model yield versus time}}{7}}
\@writefile{lof}{\contentsline {figure}{\numberline {11}{\ignorespaces CA6: 4-lump model yield versus conversion}}{8}}
\@writefile{lof}{\contentsline {figure}{\numberline {12}{\ignorespaces [Placeholder] CA6: 4-lump model time versus yield}}{8}}
