\relax 
\@writefile{toc}{\contentsline {section}{\numberline {1}\relax \fontsize  {14.4}{18}\selectfont  {Equations}}{2}}
\newlabel{section 1}{{1}{2}}
\newlabel{A}{{1}{2}}
\newlabel{B}{{2}{2}}
\newlabel{C}{{3}{2}}
\newlabel{T}{{4}{2}}
\@writefile{toc}{\contentsline {section}{\numberline {2}\relax \fontsize  {14.4}{18}\selectfont  {Results}}{2}}
\newlabel{results}{{2}{2}}
